[
	"Adarsh Nagar",
    "Airforce Residential Area",
    "Baba Samada wala",
    "Bair Majra",
    "Baltana",
    "Bar Majra",
    "Behlana",
    "Behlolpur",
    "Bhagwanpura",
    "Bridge Market",
    "Budanpur",
    "Capitol Complex",
    "Categary 3",
    "Colony No 04",
    "Daddu Majra",
    "Dariya",
    "Daun",
    "Deep Complex",
    "Dhanas",
    "Faidan Nizampur",
    "Gandhi Colony",
    "Hallo Majra",
    "Industrial Area Phase- II",
    "IT Habitat",
    "Jagatpura",
    "Jhampur",
    "Jujhar Nagar",
    "Kaimbwala",
    "Kajheri",
    "Khuda Ali Sher",
    "Khudda Lahora",
    "Kishangarh",
    "LIG Housing Board",
    "Makhan Majra",
    "Maloya",
    "Manana",
    "Manimajra",
    "Mariwala Town",
    "Mauli Jagran",
    "Military Area",
    "Modern Housing Complex",
    "MW Area",
    "New Kumhar Complex",
    "Phase I",
    "Phase II",
    "Progressive Society",
    "Railway Colony",
    "Raipur",
    "Raipur kalan",
    "Raipur Khurd",
    "Rajeev Colony",
    "Rajeev Vihar",
    "Ram Darbar Colony",
    "Rehabilitation Colony",
    "Sarangpur",
    "Sastrinagar",
    "sector 1",
    "sector 10",
    "sector 11",
    "sector 12",
    "sector 15",
    "sector 16",
    "sector 17",
    "sector 18",
    "sector 19",
    "sector 20",
    "sector 21",
    "sector 22",
    "sector 23",
    "sector 24",
    "sector 25",
    "sector 26",
    "sector 27",
    "sector 28",
    "sector 29",
    "sector 3",
    "sector 30",
    "Sector 31",
    "sector 32",
    "sector 33",
    "sector 34",
    "sector 35",
    "sector 36",
    "sector 37",
    "sector 38",
    "sector 39",
    "sector 4",
    "sector 40",
    "sector 41",
    "sector 42",
    "sector 43",
    "sector 44",
    "sector 45",
    "sector 46",
    "sector 47",
    "sector 48",
    "sector 49",
    "sector 5",
    "sector 50",
    "sector 51",
    "sector 52",
    "sector 6",
    "sector 7",
    "sector 8",
    "sector 9",
    "Shivalik Enclave",
    "Sihanpur",
    "Subhash Nagar",
    "Swastik Vihar",
    "Tarauli",
    "Timber Market",
    "Togan",
    "Tohga",
    "Tribune Colony"
]