[
	"Aarthi nagar",
    "Abiramapuram",
    "Adambakkam",
    "Adityaram nagar",
    "Adyar",
    "Agathiyar Nagar",
    "Aishwarya nagar",
    "Akkarai",
    "AKR nagar",
    "Alandur",
    "Alinjivakkam",
    "Alwar nagar",
    "Alwarpet",
    "Ambal Nagar",
    "Ambattur",
    "Ambedkar Nagar",
    "Aminjikarai",
    "Amman Nagar ",
    "Anakaputhur",
    "Andar Kuppam",
    "Anna colony",
    "Anna Nagar",
    "Anna Salai",
    "Annai Sathya nagar",
    "Anuman Colony",
    "Arambakkam",
    "Arani",
    "Arihant Escapade",
    "Ariyalur",
    "Arumbakkam",
    "Ashok Leyland Area",
    "Ashok Nagar",
    "Attipattu",
    "Attrthangal",
    "Ayanambakkam",
    "Ayanavaram",
    "Ayappakkam",
    "Ayyappa Nagar",
    "Baba nagar",
    "Balaji Nagar",
    "Barnaby Avenue",
    "Basha Garden",
    "Besant Nagar",
    "Bharathy Nagar",
    "Bhavani Nagar",
    "Bhel Nagar",
    "Brindavan nagar",
    "Camp Road",
    "Chennai Port trust",
    "Chetpet",
    "Chettimedu Balaji",
    "Chinna Nolambur",
    "Chintadripet",
    "Chitlapakkam",
    "Choolai",
    "Choolaimedu",
    "Chromepet",
    "Cit colony",
    "Cowl bazar",
    "Dgoa Complex",
    "East Coast Road - ECR",
    "Edandanur",
    "Egmore",
    "Ekkattuthangal",
    "Elandangur",
    "Ennore",
    "Ernavour",
    "Eswaran Nagar",
    "Fort St george",
    "Gandhi Nagar",
    "Ganesh Avenue",
    "George Town",
    "Gerugambakkam",
    "Girigori Nagar",
    "Gokul colony",
    "Gomathy Nagar",
    "Gopal nagar",
    "Gopala Puram",
    "Gopalasamy nagar",
    "Gowrivakkam",
    "Grand Lyon",
    "GST Road",
    "Guindy",
    "Hazur  Garden",
    "HL colony",
    "Indira Nagar",
    "Injambakkam",
    "Intuc Nagar",
    "Irumbuliyur",
    "Iyyappanthangal",
    "J Nagar",
    "Jafferkhanpet",
    "Jagannatha nagar",
    "Jai nagar",
    "Jalladian Pet",
    "Janki nagar",
    "Jayalalitha nagar",
    "Jeyachandra nagar",
    "Joseph nagar",
    "jothi nagar",
    "Jyothi Mangala Nagar",
    "K K Nagar",
    "Kadappakkam",
    "Kaietha Milleth Nagar",
    "Kalaignar",
    "Kalakkral",
    "Kalakshetra Colony",
    "Kalathur",
    "Kamakoti Nagar",
    "Kamaraj Nagar",
    "Kamban nagar",
    "Kanagam",
    "kanathur reddikuppam",
    "Kandigai",
    "Kannagi Nagar",
    "Kannampalayam",
    "Kanu Nagar",
    "Karanai",
    "Karapakkam",
    "Karthik nagar",
    "Kasi Visalakshi kupppam",
    "Kattupakkam",
    "Keelkattalai",
    "Kennedy Square",
    "Kilkattalai",
    "Kilpauk",
    "Kk nagar",
    "KKR nagar",
    "Kodambakkam",
    "Kodungaiyur",
    "Kolapakkam",
    "Kolathur",
    "Kondavakkam",
    "Korattur",
    "Kothwal chavadi",
    "Kotivakkam",
    "Kottivakkam",
    "Kotturpuram",
    "Kovilambakkam",
    "Koyambedu",
    "Krishna Nagar",
    "Kumananchavadi",
    "Kumaran",
    "Lakshimi colony",
    "Lakshmi nagar",
    "Lakshmi Narayana nagar",
    "LUZ ",
    "MA nagar",
    "Ma Po si Nagar",
    "Madambakkam",
    "Madhanandapuram",
    "Madhavaram",
    "Madipakkam",
    "Madura nagar",
    "Maduravoyal",
    "Mahalakshmi Nagar",
    "Mahalingapuram",
    "Mahaveer colony",
    "Majestic colony",
    "Mambalam",
    "Manali",
    "Manali New town",
    "Manapakkam",
    "Manavalan nagar",
    "Mandaveli",
    "Mangadu",
    "Manickam Nagar",
    "Manikkam nagar",
    "Manjampakkam",
    "Mappedu Junction",
    "Maraimalai Nagar",
    "Medavakkam",
    "Meetpar Nagar",
    "Melma Nagar",
    "Melnallathur",
    "Methpur",
    "Mettukuppam",
    "Mettupalayam",
    "MF nagar",
    "MGR nagar",
    "MM nagar",
    "Mmulaiwayal",
    "Mogappair",
    "Mohan nagar",
    "Moolakadai",
    "Moorthy nagar",
    "Moulivakkam",
    "MRC Nagar",
    "Mrg Nagar",
    "Ms nagar",
    "Mugalivakkam",
    "Mylapore",
    "Nallambakkam",
    "Nandambakkam",
    "Nandanam",
    "Nanganallur",
    "Nanmangalam",
    "Naravarikuppam",
    "Natesan nagar",
    "Natraj Nagar",
    "Navallur",
    "Neelangarai",
    "Neelankarai",
    "Nehru  nagar",
    "Nemilichery",
    "Nerkundram",
    "Nesapakkam",
    "Netaji nagar",
    "Nettukuppam",
    "New Balaji nagar",
    "New Central jail",
    "Nolambur",
    "Noothencheri",
    "Nungambakkam",
    "Old Vandipalayam",
    "Old Washermanpet",
    "OMR road",
    "Oragadam",
    "Otteri",
    "Ottiyabakkam",
    "Padi",
    "Pakkam",
    "Palagai  thotti Kuppam",
    "Palaniappa Nagar",
    "Palavakkam",
    "Pallavan Nagar",
    "Pallavaram",
    "Pallikaranai",
    "Pammal",
    "Pari Nagar",
    "Pavapuri Colony",
    "Pazhavanthangal",
    "Perambur",
    "Peravallur",
    "Periapalayam",
    "Periyar Nagar",
    "Perumbakkam",
    "Perungavoor",
    "Perungudi",
    "Ponniammanmedu",
    "Poonamallee",
    "Porur",
    "Pozhichalur",
    "Pudhu nagar",
    "Pudumanaikuppam",
    "Pulianthope",
    "Purasawalkam",
    "Pushpa Nagar",
    "Puthagaram",
    "Puthu Nagar",
    "Puzhal",
    "Puzhuthivakkam",
    "R.A Puram",
    "Raja Nagar",
    "Rajakilpakkam",
    "Ram Garden",
    "Ram nagar south extension",
    "Ramakrishna Puram",
    "Ramapuram",
    "RamKrishna nagar",
    "Rathna Nagar",
    "Rayapuram",
    "Red Hills",
    "Royapettah",
    "Royapuram",
    "S and P garden",
    "Saibaba Nagar",
    "Saidapet",
    "Sakthi Nagar",
    "Saligramam",
    "Samayapuram",
    "Samraj Nagar",
    "Samuel nagar",
    "Sanjay Nagar",
    "Santhome",
    "Santhosapuram",
    "Saraswathi Nagar",
    "Sathasiva Nagar",
    "Selaiyur",
    "Sembakkam",
    "Semmanjeri",
    "Semmencherry",
    "Sendurpuram",
    "Seven wells South",
    "Shankar Nagar",
    "Shanmuga Puram",
    "Shanthi Nagar",
    "Shastri nagar",
    "Sheela nagar",
    "Shenoy Nagar",
    "Shiridi Sai Nagar",
    "Sholinganallur",
    "Sidco nagar",
    "Sirugavur",
    "Sithalapakkam",
    "Sivaboodam",
    "Sivan Nagar",
    "Soumya Nagar",
    "Sri Ambal Nagar",
    "Srinivasa Nagar",
    "St Thomas Mount",
    "Subham nagar",
    "Surapet",
    "Suresh Nagar",
    "T.Nagar",
    "Tambaram",
    "Tansi",
    "Taramani",
    "Teynampet",
    "Thalambur",
    "Thandalam",
    "Tharamani",
    "Thayapa",
    "Thazankuppam",
    "Theerthankaral",
    "Theerthgiriyampattu",
    "Theresa nagar",
    "Thirumullaivoyal",
    "Thiruneermalai",
    "Thiruvalluvar Nagar",
    "Thiruvanmiyur",
    "Thiruverkadu",
    "Thiruvottiyur",
    "Thoraipakkam",
    "Tirumal Nagar",
    "Tiruneermalai",
    "Tiruvottiyur",
    "Tondiarpet",
    "Triplicane",
    "TVK nagar",
    "Uthandi",
    "Vadagarai",
    "Vadampurambakkam",
    "Vadanoombal",
    "Vadapalani",
    "Vaikkadu",
    "Valasaravakkam",
    "Vanagaram",
    "Vanuvampet",
    "Varadharajapuram",
    "Velachery",
    "Vengaivasal",
    "Venkateshwara Nagar",
    "Venugopal Nagar",
    "Vepery",
    "Vetri Nagar",
    "VGN layout",
    "Vichoor",
    "Vignesh nagar",
    "Vijya Nagar",
    "Vijya nallur",
    "Vilangadupakkam",
    "Villivakkam",
    "Viman Nagar",
    "Virugambakkam",
    "VS mani nagar",
    "Vyasarpadi",
    "Washermanpet",
    "West Mambalam",
    "Wimco nagar"
]