[
	"Abhay Khand",
    "Afzalpur Nistoli",
    "Ahinsa Khand I",
    "Ahinsa Khand II",
    "Amrit Nagar",
    "Ankur Vihar",
    "Asalatpur Farakh Nagar",
    "Atour",
    "Avantika",
    "Behta Hazipur",
    "Bhenara Khurd",
    "Bhim Nagar",
    "Bhopura",
    "Bhram Puri",
    "Bhuapur",
    "Chander Nagar",
    "Chhapraula",
    "Chiranjiv Vihar",
    "Crossing Republik",
    "Dasna",
    "Daulatpura",
    "Defence Colony",
    "Delhi-Wazirabad Road",
    "Dilshad Extension",
    "Dundahera",
    "Duryai",
    "Feroj Mohanpur",
    "Ghukna",
    "Govind Puram",
    "GT Road",
    "Gyan Khand I",
    "Gyan Khand II",
    "Gyan Khand III",
    "Gyan Khand IV",
    "Hapur Road",
    "Haqiqatpur",
    "Harbans Nagar",
    "Harsaon",
    "Hindan Residential Area",
    "Indirapuram",
    "Indraprastha Yojna",
    "Janakpuri",
    "Judges Enclave",
    "Kachera Varsabad",
    "Kala Patther",
    "Kamla Nehru Nagar",
    "Kaushambi",
    "Kavi Nagar",
    "Koyal Enclave",
    "Krishna Vihar",
    "Lajpat Nagar",
    "Lal Kuan",
    "Lohia Nagar",
    "Loni",
    "Madhopura",
    "Madhuban Bapudham",
    "Mahiuddin Pur Kanawni",
    "Mahurali",
    "Maliwara",
    "Marium Nagar",
    "Model Town",
    "Mohan Nagar",
    "Morta",
    "Morti",
    "Nagla",
    "Nai Basti Dundahera",
    "Nandgram",
    "Naya Ganj",
    "Neelmani Colony",
    "Nehru Nagar",
    "Nehru Nagar-II",
    "Nehru Nagar-III",
    "Niti Khand I",
    "Niti Khand II",
    "Niti Khand III",
    "Nyay Khand I",
    "Nyay Khand II",
    "Nyay Khand III",
    "Panchsheel Enclave",
    "Pandav Nagar",
    "Patel Nagar",
    "Pratap Vihar",
    "Raispur",
    "Raj Nagar",
    "Raj Nagar Extension",
    "Rajendra Nagar",
    "Ramprastha",
    "Sadiqpur",
    "Sahibabad",
    "Sanjay Nagar",
    "Sehani Khurd",
    "Sewa Nagar",
    "Shahpur Bamheta",
    "Shakti Khand I",
    "Shakti Khand II",
    "Shakti Khand III",
    "Shakti Khand IV",
    "Shalimar Garden",
    "Shalimar Garden Extention 1",
    "Shalimar Garden Extention 2",
    "Shastri Nagar",
    "Shatabdipuram",
    "Shipra Suncity",
    "Surya Nagar",
    "Swaran Jyanti Puram",
    "Tigri",
    "Vaibhav Khand",
    "Vaishali",
    "Vaishali Extension",
    "Vaishali Sector - 6",
    "Vaishali sector 1",
    "Vaishali sector 2",
    "Vaishali sector 3",
    "Vaishali sector 4",
    "Vaishali sector 5",
    "Vasundhara",
    "Vasundhara sector 1",
    "Vasundhara sector 10",
    "Vasundhara sector 11",
    "Vasundhara sector 12",
    "Vasundhara sector 13",
    "Vasundhara sector 14",
    "Vasundhara sector 15",
    "Vasundhara sector 16",
    "Vasundhara sector 17",
    "Vasundhara sector 18",
    "Vasundhara sector 19",
    "Vasundhara sector 2",
    "vasundhara sector 3",
    "Vasundhara sector 4",
    "Vasundhara sector 5",
    "Vasundhara sector 6",
    "Vasundhara sector 7",
    "Vasundhara sector 8",
    "Vasundhara sector 9",
    "Vijay Nagar",
    "Wave City"
]