[
	"Abhyankar Nagar",
    "Airport Colony",
    "Ajni",
    "Ambazari",
    "Anant Nagar",
    "Ansar Nagar",
    "Ashirwad Nagar",
    "Ayodhya Nagar",
    "Azamshah Layout",
    "Baba Deep Nagar",
    "Badil Kheda",
    "Bagadganj",
    "Bajaj Nagar",
    "Bajeria",
    "Balaji Nagar",
    "Beltarodi",
    "Besa",
    "Bezonbagh",
    "Bhagwan Nagar",
    "Bharat Nagar",
    "Bhawani Nagar",
    "Bhilgaon",
    "Bhokara",
    "Binaki",
    "Borgaon",
    "Bupeshngar",
    "Byramji Town",
    "Chandan Nagar",
    "Chandrakiran Nagar",
    "Chatrapati Nagar",
    "Civil Lines",
    "Clark Town",
    "CPRI Colony",
    "Dabha",
    "Dhantoli",
    "Dharampeth",
    "Dighori",
    "Dindayal Nagar",
    "Dixit Nagar",
    "Dobhi Nagar",
    "Drugdhamna",
    "Duttawadi",
    "Ekatmata Nagar",
    "Ekta Colony",
    "Empress City",
    "Gandhi Nagar",
    "Gandhibagh",
    "Ganeshpeth Colony",
    "Gayatri Nagar",
    "Ghar Sansar Nagar",
    "Ghogali",
    "Godhni",
    "Gokulpeth",
    "Gopal Nagar",
    "Gorepeth",
    "Gorewada",
    "Hamid Nagar",
    "Hansapuri",
    "Hanuman Nagar",
    "Harihar Nagar",
    "Hingna",
    "Itwari",
    "Jafar Nagar",
    "Jaiprakash Nagar",
    "Jaitala",
    "Jaripatka",
    "Jayanti Nagar",
    "Kachimet",
    "Kalmana",
    "Kamgar Nagar",
    "Kasabpura",
    "Khamla",
    "Kharbi",
    "Khare Town",
    "Koradi Colony",
    "KT Nagar",
    "Lakadganj",
    "Lava",
    "laxmi Nagar",
    "Lonara",
    "Madhav Nagar",
    "Mahal",
    "Mahdibagh Colony",
    "Mahdula",
    "Manav Seva Nagar",
    "Manewada",
    "Mangalwari",
    "Manish Nagar",
    "Mariam Nagar",
    "Mhalgi Nagar",
    "Mohan Nagar",
    "Mominpura",
    "N.I.T. Layout",
    "Nagalwadi",
    "Nail Nagar",
    "Nandanvan",
    "Narendra Nagar",
    "Nari Village",
    "Narmada Colony",
    "Narsala",
    "Navin Nagar",
    "New Colony",
    "New Indora",
    "New Mankapur",
    "New Sneh Nagar",
    "Nildoh",
    "Omkar Nagar",
    "Pande Layout",
    "Panjara",
    "Pardi",
    "Parsodi",
    "Pipla",
    "Police LineTakli",
    "Poonam Vihar",
    "Prabhat Nagar",
    "Prashant Nagar",
    "Pratap Nagar",
    "Prem nagar",
    "Raghuji Nagar",
    "Rahate Colony",
    "Raj Nagar",
    "Rajendra Nagar",
    "Ram Nagar",
    "Ramdaspeth",
    "Rameshwari",
    "Ramtek",
    "Reshim Bag",
    "S R P Camp",
    "Sadar",
    "Sahakar Nagar",
    "Sainath Nagar",
    "Samarth nagar",
    "Saroj Nagar",
    "Shambhu Nagar",
    "Shankar Nagar",
    "Shanti Nagar Colony",
    "Shila Nagar",
    "Shilpa Society",
    "Shivaji Nagar",
    "Shivan Gaon",
    "Siddharth Nagar",
    "Sitabuldi",
    "Smurti Nagar",
    "Sneha Nagar",
    "Somalwada",
    "Sonegaon",
    "Subhash Nagar",
    "Surendra Nagar",
    "Surve Nagar",
    "Surya Nagar",
    "Swavalambi Nagar",
    "Tandapeth",
    "Teka Naka",
    "Telangkhedi",
    "Telecom Nagar",
    "Trimurti Nagar",
    "Uday Nagar",
    "Umred Road",
    "Unthkhana",
    "Vaishali Nagar",
    "Vasant Nagar",
    "Vayusena Nagar",
    "Vidya Nagar",
    "Vishram Nagar",
    "Vishwakarma Nagar",
    "Vivekanand Nagar",
    "Wadi",
    "Wanjari Nagar",
    "Wardha Road",
    "Wardhaman Nagar Colony",
    "Wathoda",
    "Yashoda Nagar",
    "Zingabai Takli"
]