[
	"Ahmedguda",
    "Alwal",
    "Ambedkar Nagar",
    "Anjaiah Nagar",
    "Anjanadri Nagar Ext",
    "Annapurna Colony",
    "Anupuram Colony",
    "Arul Colony",
    "Ashok Enclave",
    "Ashok Manipuri",
    "Ashok Nagar",
    "Ayyappa Nagar",
    "Badshahpet",
    "Bala Chitra Nagar",
    "Balaji Nagar",
    "Bandlaguda",
    "Bandlaguda Colony",
    "Bank Colony",
    "Bapu Nagar",
    "Bashirabad",
    "Bharani Colony",
    "Bharat Nagar",
    "Bhayalaxmi Nagar",
    "BN Reddy Nagar",
    "Bogaram",
    "Bolarum",
    "Brindavan Residency",
    "Chandra Nagar Colony",
    "Cheeriyal",
    "Chengicherla",
    "Cheryaal",
    "Chinna Kamala",
    "DAE Housing Colony",
    "Dammaiguda",
    "Data Colony",
    "EC Nagar Colony",
    "Gandhi Nagar",
    "Gautham Nagar",
    "Gayathri Nagar",
    "General Bazaar",
    "Godumakunta",
    "Golf Enclave",
    "Golla Guda",
    "Golnaka",
    "Gopal Nagar Colony",
    "Green Field Colony",
    "Green Hills Colony",
    "Gruhatara",
    "Gulmohar Garden",
    "GV Reddy Colony",
    "Hakimpet",
    "Hakimpet Village Colony",
    "Hanumanpet",
    "Hasmathpet",
    "HCL Nagar",
    "Hridas Pally",
    "Hyder Basthi",
    "IDA Mallapur",
    "Insurance Colony",
    "Ismailkhanguda",
    "J.J Nagar",
    "jai Jawahar Nagar",
    "Janaki Nagar",
    "Jawahar Nagar",
    "Jeera",
    "Jupiter Colony",
    "Kalyan Nagar",
    "Kalyani Residency",
    "Kandiguda",
    "Kandla Koya",
    "Kapra",
    "Karimguda",
    "Karkhana",
    "Keesara    ",
    "Keesara Dairy",
    "Khalasi Guda",
    "Kistamma Enclave",
    "Kowkur",
    "Krishna Nagar Colony",
    "Kundanpally",
    "Kushaiguda",
    "Lakadwala Colony",
    "Lalapet",
    "LNR Colony",
    "Maa Santoshi  Colony PH-1",
    "Machabollaram",
    "Madhura Nagar",
    "Maitri Enclave",
    "Malla Reddy Colony",
    "Mallapur",
    "Manjeera Colony",
    "Maruthi Nagar",
    "Moula Ali",
    "Nacharam",
    "Nagaram",
    "Nagarjuna Nagar Colony",
    "Nandan Nagar",
    "Narapally",
    "Narsimha Colony",
    "New Vasavi Nagar",
    "NFC Employees Colony",
    "Nirmal Nagar",
    "Officers Colony",
    "P S Rao Nagar",
    "Padamatisaiguda",
    "Panchsheel Enclave",
    "Pocharam",
    "POT Market",
    "Pothaipally",
    "Prashanth Nagar",
    "Prashanthi Nagar Colony",
    "R.T.C Colony",
    "Railway Colony",
    "Rajeev Nagar Colony",
    "Rajiv Guha Kalpa Colony",
    "Ram Raj Nagar",
    "Ram reddy Colony",
    "Rampally",
    "Rani Gunj",
    "RK Puram",
    "RNS Colony",
    "RTC Nagar Colony",
    "Saddulla Nagar",
    "Sai Nagar",
    "Sainathpuram",
    "Santosh Nagar Colony",
    "Shirdi Enclave",
    "Shivanagar Colony",
    "Shobana Colony",
    "Sikandarabad",
    "Sikh Village",
    "Sri Ganesh Nagar",
    "Sri Laxmi Enclave",
    "Sri Nagar Colony",
    "Sri Sai Enclave",
    "Sri Sai Homes",
    "Sri Sai Nagar Colony",
    "SS Enclave",
    "Stella Nagaram",
    "Subhash Nagar",
    "Surya Nagar",
    "Swarnadhama Nagar",
    "Teachers Colony",
    "Telephone Colony",
    "Temple Alwal",
    "Thimmaipalli",
    "Thrimurthy Colony",
    "Thumukunta",
    "Tirumala Enclave",
    "Tirumala Nagar",
    "TPS Colony",
    "Turakpalli",
    "Vasantagiri",
    "Ved Vihar",
    "Venkatapuram",
    "Venkusa Estates",
    "Vijyapuri East Colony",
    "Vikrampuri Colony",
    "Vishwakarma Colony",
    "Vision City",
    "Vivek Nagar",
    "VNR Enclave",
    "West Marredpally",
    "Yadamma Nagar",
    "Yamjal",
    "Yamnampet"
]