[
	"Anji",
    "Bagh",
    "Basant Vihar",
    "Bemloi",
    "Bhakoo",
    "Bhattakufer",
    "Bhawana",
    "Boileauganj",
    "Bothwwell Estate",
    "Cemetry",
    "Chahli Kalan",
    "Chailly",
    "Chakkar",
    "Chamiyana",
    "Chaura Maidan",
    "Chauri",
    "Chotta Shimla",
    "Combley Banks",
    "Dev Nagar",
    "Dhaila",
    "Dhainda",
    "Dhalli",
    "Dharath",
    "Dingu Bawri",
    "Fingask Estate",
    "Forest Colony",
    "Frood",
    "Garb Kalan",
    "Ghora Chowki",
    "Gusan",
    "Himuda Colony",
    "Hira Nagar",
    "Housing Board Colony",
    "Jablog",
    "Jangal Badfar-1",
    "Jangal Barmu",
    "Jotogh",
    "kair",
    "Kaithu",
    "Kalawat",
    "kanda",
    "kanlog",
    "Kasumpti",
    "Khadol",
    "Khalini",
    "khaljog",
    "Koara",
    "Kolu Ki Kwali",
    "Kyari",
    "Lakkar Bazar",
    "Lalpani",
    "Lambi Dhar",
    "Longwood",
    "Malyana",
    "Maryahan Village",
    "Mehli",
    "Milsington Estate",
    "Nahra",
    "Nalail",
    "Naog",
    "Navbhahar",
    "Neri",
    "New Shimla",
    "Nigam Vihar",
    "Nihari",
    "Niun",
    "North Oak",
    "Pagog",
    "Panjari",
    "Panthaghati",
    "Phagli",
    "Rajana",
    "Rehai",
    "Rori",
    "Sandal",
    "Sangti",
    "Sanjauli",
    "Sankat Mochal Mandir",
    "Sector 1",
    "Sector 2",
    "Shal Gaon",
    "Shanan",
    "Sharawag",
    "Shaurala",
    "Shiv Nagar",
    "Strawberry Hill",
    "Summer Hill",
    "Talland",
    "Teachers Colony",
    "Totu",
    "Tutikandi",
    "Up-Mohal Devli Dhar",
    "Vikasnagar"
]